<svg width="342" height="342" viewBox="0 0 342 342" fill="none" xmlns="http://www.w3.org/2000/svg">
    <g opacity="0.8">
    <path d="M303.781 215.356C303.781 270.419 245.589 318.6 230.524 330.202C228.259 331.874 225.503 332.857 222.746 332.857C215.656 332.857 209.945 327.154 209.945 320.075V296.574L303.781 215.356Z" fill="#CC7272"/>
    <path d="M243.521 215.356C243.521 270.419 185.329 318.6 170.264 330.202C167.999 331.874 165.242 332.857 162.485 332.857C155.396 332.857 149.685 327.154 149.685 320.075V296.574L243.521 215.356Z" fill="#CC7272"/>
    <path d="M181.39 323.614C248.985 323.614 303.781 277.215 303.781 219.977C303.781 162.74 248.985 116.341 181.39 116.341C113.796 116.341 59 162.74 59 219.977C59 277.215 113.796 323.614 181.39 323.614Z" fill="url(#paint0_linear)"/>
    <path d="M181.39 116.439C181.292 116.439 181.194 116.439 181.095 116.439C155.396 119.389 136.393 145.347 140.331 173.96C144.86 206.212 181.292 243.379 237.022 252.524C272.863 258.325 303.781 240.626 303.781 220.076C303.781 162.849 249.035 116.439 181.39 116.439Z" fill="#EFB7B7"/>
    <path d="M119.949 219.977C119.949 275.041 178.141 323.221 193.206 334.824C195.471 336.495 198.228 337.479 200.985 337.479C208.074 337.479 213.785 331.776 213.785 324.696V301.196L119.949 219.977Z" fill="url(#paint1_linear)"/>
    <path d="M142.793 122.928C139.051 124.403 136.885 126.862 136.885 128.533C137.771 131.09 156.085 119.684 195.865 124.6C199.508 124.698 203.742 120.274 200.591 118.799C180.012 115.849 157.759 117.717 142.793 122.928Z" fill="#F3C9C9"/>
    <path d="M143.974 122.338C140.331 123.715 138.263 125.78 138.263 127.255C139.051 129.418 156.775 119.487 195.077 123.617C198.622 123.715 202.757 119.782 199.705 118.602C179.815 116.045 158.35 117.717 143.974 122.338Z" fill="#E87E27"/>
    <path d="M270.23 257.999C293.234 255.262 310.202 238.967 308.131 221.604C306.06 204.24 285.732 192.382 262.728 195.119C239.725 197.856 222.756 214.15 224.827 231.514C226.899 248.878 247.226 260.735 270.23 257.999Z" fill="#F1BFBF"/>
    <path d="M310.477 223.714C312.544 241.019 295.609 257.342 272.666 260.095C249.724 262.848 229.342 250.951 227.275 233.645C225.207 216.339 242.143 200.017 265.085 197.264C288.027 194.511 308.409 206.408 310.477 223.714Z" fill="url(#paint2_linear)"/>
    <path d="M209.256 152.623C209.012 151.747 200.099 132.27 194.782 128.041C183.951 119.29 159.433 131.581 162.781 174.649C162.781 174.649 165.144 177.893 178.043 177.598C168.787 160.686 173.594 130.835 186 127C196 123.909 208.244 152.309 208.5 153C208.756 153.691 209.5 153.5 209.256 152.623Z" fill="#D88484"/>
    <path d="M275.325 130.303C282.71 133.941 280.248 146.822 277.491 155.868C277.59 155.966 277.787 156.163 277.885 156.261C280.347 149.083 281.43 142.004 280.347 137.383C277.688 125.583 257.798 120.864 239.878 129.123C243.62 130.893 247.361 132.761 250.906 134.826C259.866 129.615 269.614 127.451 275.325 130.303Z" fill="#EBA5A5"/>
    <path d="M275.325 130.303C269.614 127.55 259.866 129.713 250.906 134.826C254.549 136.989 258.094 139.251 261.343 141.709C268.728 146.92 276.703 155.18 277.393 155.966C280.248 146.724 282.611 133.843 275.325 130.303Z" fill="#D88484"/>
    <path d="M59 219.977C59 275.041 117.192 323.221 132.257 334.824C134.522 336.495 137.279 337.479 140.036 337.479C147.125 337.479 152.836 331.776 152.836 324.696V301.196L59 219.977Z" fill="url(#paint3_linear)"/>
    <path d="M112.17 295.296C100.847 290.38 87.4559 287.528 79.3818 279.269C97.4992 306.702 122.607 327.449 132.06 334.725C133.832 336.102 135.802 337.085 138.066 337.38C140.528 337.773 142.891 337.479 144.959 336.594C142.497 332.857 138.46 326.269 134.522 319.976C128.515 310.439 122.509 299.819 112.17 295.296Z" fill="#CC7272"/>
    <path d="M152.935 310.635V325.679C152.935 325.679 164.75 327.744 166.03 322.828C162.289 322.434 152.935 310.635 152.935 310.635Z" fill="#CC7272"/>
    <path d="M213.884 310.635V325.679C213.884 325.679 221.268 322.631 222.548 317.616C218.216 318.895 213.884 310.635 213.884 310.635Z" fill="#CC7272"/>
    <path d="M195.372 319.976C189.464 310.439 182.67 298.541 171.741 294.706C161.894 291.265 157.857 302.277 168.295 312.995C178.633 323.319 187.987 330.891 193.009 334.725C194.781 336.102 196.751 337.085 199.015 337.38C201.477 337.773 203.84 337.478 205.908 336.594C203.348 332.955 199.311 326.368 195.372 319.976Z" fill="#CC7272"/>
    <path d="M73.0801 339.15C72.9816 339.15 72.8831 339.15 72.7847 339.15C71.8985 338.953 71.4062 338.167 71.6031 337.282L105.278 173.37C105.475 172.485 106.262 171.994 107.149 172.19C108.035 172.387 108.527 173.174 108.33 174.059L74.6555 337.97C74.4586 338.658 73.8678 339.15 73.0801 339.15Z" fill="#E87E27"/>
    <path d="M110.496 339.15C110.398 339.15 110.3 339.15 110.201 339.15C109.315 338.953 108.823 338.167 109.02 337.282L142.694 173.37C142.891 172.485 143.679 171.994 144.565 172.19C145.451 172.387 145.943 173.174 145.747 174.059L112.072 337.97C111.875 338.658 111.186 339.15 110.496 339.15Z" fill="#E87E27"/>
    <path d="M140.626 192.741H103.21C102.324 192.741 101.635 192.053 101.635 191.168C101.635 190.283 102.324 189.594 103.21 189.594H140.626C141.513 189.594 142.202 190.283 142.202 191.168C142.202 191.954 141.414 192.741 140.626 192.741Z" fill="#E87E27"/>
    <path d="M136.294 213.586H98.8775C97.9913 213.586 97.3021 212.898 97.3021 212.013C97.3021 211.128 97.9913 210.44 98.8775 210.44H136.294C137.18 210.44 137.869 211.128 137.869 212.013C137.869 212.898 137.18 213.586 136.294 213.586Z" fill="#E87E27"/>
    <path d="M131.962 234.53H94.5456C93.6594 234.53 92.9702 233.842 92.9702 232.957C92.9702 232.072 93.6594 231.383 94.5456 231.383H131.962C132.848 231.383 133.537 232.072 133.537 232.957C133.537 233.842 132.848 234.53 131.962 234.53Z" fill="#E87E27"/>
    <path d="M127.728 255.375H90.3113C89.4251 255.375 88.7359 254.687 88.7359 253.802C88.7359 252.917 89.4251 252.229 90.3113 252.229H127.728C128.614 252.229 129.303 252.917 129.303 253.802C129.303 254.687 128.614 255.375 127.728 255.375Z" fill="#E87E27"/>
    <path d="M123.395 276.319H85.9787C85.0925 276.319 84.4033 275.631 84.4033 274.746C84.4033 273.861 85.0925 273.172 85.9787 273.172H123.395C124.281 273.172 124.97 273.861 124.97 274.746C124.97 275.631 124.281 276.319 123.395 276.319Z" fill="#E87E27"/>
    <path d="M119.063 297.263H81.6467C80.7605 297.263 80.0713 296.574 80.0713 295.689C80.0713 294.805 80.7605 294.116 81.6467 294.116H119.063C119.949 294.116 120.638 294.805 120.638 295.689C120.638 296.476 119.949 297.263 119.063 297.263Z" fill="#E87E27"/>
    <path d="M114.829 318.108H77.4125C76.5263 318.108 75.8371 317.42 75.8371 316.535C75.8371 315.65 76.5263 314.962 77.4125 314.962H114.829C115.715 314.962 116.404 315.65 116.404 316.535C116.404 317.42 115.715 318.108 114.829 318.108Z" fill="#E87E27"/>
    </g>
    <path fill-rule="evenodd" clip-rule="evenodd" d="M89.5223 149.722L96.2049 212.249L98.3259 264.286L103.675 265.536L107.906 154.02L89.5223 149.722Z" fill="#997659"/>
    <path fill-rule="evenodd" clip-rule="evenodd" d="M85.4551 148.771C80.4909 169.034 70.9602 195.649 70.1631 196.798C69.6316 197.564 55.5889 205.602 28.0348 220.913L30.6768 226.232C61.6327 214.82 78.007 208.079 79.7996 206.011C82.4885 202.908 96.1612 171.77 105.571 153.474L85.4551 148.771Z" fill="#B28B67"/>
    <path fill-rule="evenodd" clip-rule="evenodd" d="M30.3458 218.065C29.005 217.911 28.0255 217.922 27.4072 218.101C26.6551 218.318 25.5833 218.773 24.1917 219.465C24.3699 220.427 25.9714 229.069 28.9961 245.391C31.1417 245.482 32.1606 244.778 32.0527 243.28C31.9449 241.782 31.8669 240.534 31.8188 239.537L34.4596 226.08C34.5104 225.821 34.3655 225.577 34.136 225.534C34.1321 225.533 34.1281 225.533 34.1242 225.532L32.276 225.249C31.4581 224.07 30.9714 223.06 30.8157 222.22C30.6892 221.537 30.7646 220.522 31.042 219.175L31.042 219.175C31.1484 218.658 30.8634 218.166 30.4055 218.075C30.3857 218.071 30.3658 218.068 30.3458 218.065Z" fill="#E4E4E4"/>
    <path fill-rule="evenodd" clip-rule="evenodd" d="M97.0107 263.14C96.5057 264.486 96.2473 265.506 96.2355 266.201C96.2211 267.046 96.3294 268.294 96.5603 269.943C97.3397 270.03 103.001 272.044 114.5 273.5C116.277 273.725 118.455 273.273 120.5 273.5C121.169 271.299 120.855 269.832 119.499 269.5C118.144 269.168 116.396 269.08 115.5 268.835L105.232 261.243C105.017 261.113 104.761 261.191 104.66 261.417C104.659 261.421 104.657 261.425 104.655 261.429L103.898 263.264C102.629 263.763 101.602 263.97 100.816 263.882C100.177 263.812 99.2998 263.433 98.1838 262.746C97.7556 262.482 97.2414 262.632 97.0354 263.081C97.0265 263.1 97.0183 263.12 97.0107 263.14Z" fill="#E4E4E4"/>
    <path fill-rule="evenodd" clip-rule="evenodd" d="M79.3384 254.538L105.501 257.363L109.686 154.436L86.9067 149.11L79.3384 254.538Z" fill="#69A1AC"/>
    <path fill-rule="evenodd" clip-rule="evenodd" d="M34.9774 214.95L46.4395 241.179C69.0845 223.587 82.6392 211.822 87.1036 205.886C91.568 199.949 98.3821 182.632 107.546 153.936L81.9005 147.94C74.6147 173.367 70.6106 186.628 69.8881 187.721C69.1656 188.815 57.5287 197.891 34.9774 214.95Z" fill="#89C5CC"/>
    <path fill-rule="evenodd" clip-rule="evenodd" d="M98.7193 73.8568C95.8185 70.7468 93.8553 66.9354 94.1833 62.6646C95.1286 50.3594 113.882 53.0664 117.53 59.277C121.178 65.4877 120.744 81.2415 116.03 82.3515C114.149 82.7942 110.144 81.7098 106.068 79.4655L108.626 96H93.5181L98.7193 73.8568Z" fill="#B28B67"/>
    <path fill-rule="evenodd" clip-rule="evenodd" d="M97.5584 76.6268C95.6621 68.9212 90.26 63.6686 91.0851 60.2245C91.6351 57.9284 93.101 56.5006 95.483 55.941C96.7149 51.3889 100.688 49.4527 107.402 50.1325C117.474 51.1521 123.621 54.9725 120.966 63.379C118.526 63.379 115.58 62.5729 111.507 63.954C110.214 64.3922 109.29 65.7512 108.733 68.0308H106.893C105.106 65.3255 103.344 64.3314 101.608 65.0484C99.8712 65.7655 99.4764 67.5072 100.424 70.2737L99.5167 76.6268H97.5584Z" fill="#191847"/>
    <path fill-rule="evenodd" clip-rule="evenodd" d="M113.992 106.087L128.752 96.1404C131.204 92.7344 133.621 90.057 136.003 88.1082C136.731 87.7234 138.005 87.4382 136.817 89.8703C135.629 92.3023 134.474 94.9143 135.083 95.6024C135.691 96.2905 137.203 95.181 137.929 96.3421C138.413 97.1162 135.829 98.5494 130.176 100.642L119.458 112.271L113.992 106.087ZM137.143 112.243L143.626 107.862C144.531 103.943 145.616 101.932 146.883 101.828C147.855 101.263 146.168 106.249 148.012 105.71C149.855 105.171 154.351 101.157 155.128 101.866C156.277 102.915 155.259 106.42 154.056 108.208C151.808 111.549 149.944 112.76 145.336 114.483C142.926 115.383 140.322 117.049 137.523 119.479L137.143 112.243Z" fill="#997659"/>
    <path d="M169.477 120.863C189.706 120.863 206.105 104.487 206.105 84.2858C206.105 64.0844 189.706 47.708 169.477 47.708C149.247 47.708 132.848 64.0844 132.848 84.2858C132.848 104.487 149.247 120.863 169.477 120.863Z" fill="#FFA55C"/>
    <path opacity="0.9" d="M204.037 84.3841C203.84 103.165 188.381 118.307 169.476 118.11C150.571 117.914 135.309 102.575 135.408 83.7941C135.605 65.112 150.867 50.0679 169.673 50.0679C188.677 50.1662 204.037 65.5053 204.037 84.3841Z" fill="#F9D285"/>
    <path d="M171.92 106.773L171.92 112.933L168.353 112.933L168.353 107C163.483 107 159.527 106.186 156.486 104.558L156.486 99.6185C157.812 100.584 159.619 101.398 161.905 102.06C164.215 102.704 166.364 103.025 168.353 103.025L168.353 88.4897C163.323 86.4834 160.065 84.6381 158.578 82.9536C157.092 81.2502 156.349 79.244 156.349 76.9349C156.349 74.1905 157.481 71.8247 159.745 69.8374C162.008 67.8312 164.878 66.6293 168.353 66.2319L168.353 61.1217L171.92 61.1217L171.92 66.1183C176.402 66.2319 179.5 66.7618 181.215 67.7081L181.215 72.5345C178.883 71.0203 175.785 70.2065 171.92 70.0929L171.92 85.0829C176.676 86.9566 179.923 88.7736 181.661 90.5337C183.422 92.275 184.302 94.2623 184.302 96.4956C184.302 99.1832 183.204 101.445 181.009 103.281C178.837 105.098 175.807 106.262 171.92 106.773ZM168.353 83.493L168.353 70.2633C166.433 70.585 164.912 71.2948 163.792 72.3925C162.671 73.4713 162.111 74.7867 162.111 76.3387C162.111 77.9664 162.568 79.3007 163.483 80.3417C164.398 81.3827 166.021 82.4331 168.353 83.493ZM171.92 89.9659L171.92 102.798C176.333 102.003 178.54 100.035 178.54 96.8931C178.54 94.2812 176.333 91.9722 171.92 89.9659Z" fill="#FFA55C"/>
    <path fill-rule="evenodd" clip-rule="evenodd" d="M113.992 106.087L128.752 96.1404C131.204 92.7344 133.621 90.057 136.003 88.1082C136.731 87.7234 138.005 87.4382 136.817 89.8703C135.629 92.3023 134.5 94.6024 134.5 95.5C134.5 96.3976 134.774 96.8388 135.5 98C135.984 98.7741 135.829 98.5494 130.176 100.642L119.458 112.271L113.992 106.087ZM137.143 112.243L143.626 107.862C144.531 103.943 145.616 101.932 146.883 101.828C147.855 101.263 146.168 106.249 148.012 105.71C149.855 105.171 154.351 101.157 155.128 101.866C156.277 102.915 155.259 106.42 154.056 108.208C151.808 111.549 149.944 112.76 145.336 114.483C142.926 115.383 140.322 117.049 137.523 119.479L137.143 112.243Z" fill="#997659"/>
    <path fill-rule="evenodd" clip-rule="evenodd" d="M106.794 104.529C111.969 104.143 118.867 102.492 126.223 96.8206L129.125 103.826C124.055 109.763 116.921 114.827 110.676 115.024C105.755 115.178 103.23 108.702 106.794 104.529Z" fill="#89C5CC"/>
    <path fill-rule="evenodd" clip-rule="evenodd" d="M113.779 115.618C119.275 116.8 128.485 114.421 141.409 108.48C144.628 115.675 146.119 120.855 145.882 124.02C134.798 131.175 125.294 134.651 117.461 135.333C117.718 140.498 117.16 145.463 115.266 150.086C111.373 159.591 88.4821 152.452 80.7923 154.623C75.9485 137.488 85.2518 129.817 85.2423 118.66C85.2319 106.441 94.0053 87.0821 95.3004 87.0008L107.111 86.2594C107.777 95.5496 111.072 105.627 113.779 115.618Z" fill="#C1DEE2"/>
    <defs>
    <linearGradient id="paint0_linear" x1="181.403" y1="119.313" x2="181.403" y2="505.534" gradientUnits="userSpaceOnUse">
    <stop offset="0.1411" stop-color="#EBA5A5"/>
    <stop offset="0.2272" stop-color="#E69C9C"/>
    <stop offset="0.5094" stop-color="#D88585"/>
    <stop offset="0.7736" stop-color="#CF7777"/>
    <stop offset="1" stop-color="#CC7272"/>
    </linearGradient>
    <linearGradient id="paint1_linear" x1="166.927" y1="119.313" x2="166.927" y2="505.533" gradientUnits="userSpaceOnUse">
    <stop stop-color="#EBA5A5"/>
    <stop offset="1" stop-color="#CC7272"/>
    </linearGradient>
    <linearGradient id="paint2_linear" x1="268.844" y1="197.513" x2="268.844" y2="304.859" gradientUnits="userSpaceOnUse">
    <stop stop-color="#EBA5A5"/>
    <stop offset="0.2787" stop-color="#E9A1A1"/>
    <stop offset="0.5606" stop-color="#E19595"/>
    <stop offset="0.8431" stop-color="#D58181"/>
    <stop offset="1" stop-color="#CC7272"/>
    </linearGradient>
    <linearGradient id="paint3_linear" x1="105.978" y1="119.313" x2="105.978" y2="505.533" gradientUnits="userSpaceOnUse">
    <stop stop-color="#EBA5A5"/>
    <stop offset="1" stop-color="#CC7272"/>
    </linearGradient>
    </defs>
    </svg>
    